[gd_scene load_steps=5 format=1]

[ext_resource path="res://plant.gd" type="Script" id=1]
[ext_resource path="res://plant_color_ramp.res" type="ColorRamp" id=2]
[ext_resource path="res://pics/plant.png" type="Texture" id=3]

[sub_resource type="RectangleShape2D" id=1]

custom_solver_bias = 0.0
extents = Vector2( 16, 6 )

[node name="Plant" type="Area2D"]

input/pickable = false
shapes/0/shape = SubResource( 1 )
shapes/0/transform = Matrix32( 1, 0, 0, 1, -8.54374, -49.9809 )
shapes/0/trigger = false
gravity_vec = Vector2( 0, 1 )
gravity = 98.0
linear_damp = 0.1
angular_damp = 1.0
script/script = ExtResource( 1 )
color_ramp = ExtResource( 2 )

[node name="Sprite" type="Sprite" parent="."]

texture = ExtResource( 3 )
hframes = 2

[node name="MouthShape" type="CollisionShape2D" parent="."]

transform/pos = Vector2( -8.54374, -49.9809 )
shape = SubResource( 1 )
trigger = false
_update_shape_index = 0


